…
Each time we ran `summarize()`, we got back fewer rows than passed in. We either got one row back, or one row per group. But sometimes we want to create a new column in our data without changing the number of rows. The function we use to create new columns is called `mutate()`.

We have a column for the total nitrogen and the total phosphorus. Often, we also want to report the ratio between these two nutrients (researchers often report this as a molar ratio, but for simplicity we'll just use their masses). Here's what such a `mutate()` command would look like:


~~~
sample_data %>%
  mutate(tn_tp_ratio = total_nitrogen / total_phosphorus)
~~~
{: .language-r}



~~~
# A tibble: 71 × 10
   sample_id env_group   depth cells_per_ml temperature total_nitrogen total_phosphorus diss_org_carbon chlorophyll tn_tp_ratio
   <chr>     <chr>       <dbl>        <dbl>       <dbl>          <dbl>            <dbl>           <dbl>       <dbl>       <dbl>
 1 May_12_B  Deep         103.     2058864.        4.07            465             3.78            2.48        0.05       123. 
 2 May_12_E  Shallow_May    5      4696827.        7.01            465             4.39            2.38        2.53       106. 
 3 May_12_M  Shallow_May   15      4808339.        6.14            474             5.37            2.60        3.2         88.3
 4 May_17_E  Shallow_May    5      3738681.        5.99            492             4.67            2.44        0.55       105. 
 5 May_29_B  Deep          27      2153086.        4.67            525             4.44            2.40        0.48       118. 
 6 May_29_E  Shallow_May    5      3124920.        5.97            521             3.71            2.28        0.79       140. 
 7 May_29_M  Shallow_May   19      2566156.        5.69            539             4.23            2.33        0.44       127. 
 8 May_33_B  Deep         135      2293177.        3.87            505             4.18            2.34        0.22       121. 
 9 May_33_E  Shallow_May    5      5480859.        7.93            473             6.64            2.51        3.44        71.2
10 May_33_M  Shallow_May   20      3114433.        4.53            515             4.14            2.23        1.27       124. 
# ℹ 61 more rows
…
> We can also multiply by constants or other numbers using mutate - remember how in the plotting lesson we made a plot with cells_per_ml in millions? Try making a new column for this dataframe called cellsInMillions that is the cell abundance in millions. 
> 
> > ## Solution: 
> > 
> > ~~~
> > sample_data %>%  
> > mutate(tn_tp_ratio = total_nitrogen / total_phosphorus, 
> >        cellsInMillions = cells_per_ml / 1000000)  
> > ~~~
> > {: .language-r}
> > 
> > 
> > 
> > ~~~
> > # A tibble: 71 × 11
> >    sample_id env_group   depth cells_per_ml temperature total_nitrogen total_phosphorus diss_org_carbon chlorophyll tn_tp_ratio cellsInMillions
> >    <chr>     <chr>       <dbl>        <dbl>       <dbl>          <dbl>            <dbl>           <dbl>       <dbl>       <dbl>           <dbl>
> >  1 May_12_B  Deep         103.     2058864.        4.07            465             3.78            2.48        0.05       123.             2.06
> >  2 May_12_E  Shallow_May    5      4696827.        7.01            465             4.39            2.38        2.53       106.             4.70
> >  3 May_12_M  Shallow_May   15      4808339.        6.14            474             5.37            2.60        3.2         88.3            4.81
> >  4 May_17_E  Shallow_May    5      3738681.        5.99            492             4.67            2.44        0.55       105.             3.74
> >  5 May_29_B  Deep          27      2153086.        4.67            525             4.44            2.40        0.48       118.             2.15
> >  6 May_29_E  Shallow_May    5      3124920.        5.97            521             3.71            2.28        0.79       140.             3.12
> >  7 May_29_M  Shallow_May   19      2566156.        5.69            539             4.23            2.33        0.44       127.             2.57
> >  8 May_33_B  Deep         135      2293177.        3.87            505             4.18            2.34        0.22       121.             2.29
> >  9 May_33_E  Shallow_May    5      5480859.        7.93            473             6.64            2.51        3.44        71.2            5.48
> > 10 May_33_M  Shallow_May   20      3114433.        4.53            515             4.14            2.23        1.27       124.             3.11
> > # ℹ 61 more rows
…
[*Back to top*](#contents)

We use the `filter()` function to choose a subset of the rows from our data, but when we want to choose a subset of columns from our data we use `select()`. For example, if we only wanted to see the sample IDs ("sample_id") and depth values, we can do:


~~~
sample_data %>%
  select(sample_id, depth)
~~~
{: .language-r}



~~~
# A tibble: 71 × 2
   sample_id depth
   <chr>     <dbl>
 1 May_12_B   103.
 2 May_12_E     5 
 3 May_12_M    15 
 4 May_17_E     5 
 5 May_29_B    27 
 6 May_29_E     5 
 7 May_29_M    19 
 8 May_33_B   135 
 9 May_33_E     5 
10 May_33_M    20 
# ℹ 61 more rows
…
We can also use `select()` to drop/remove particular columns by putting a minus sign (`-`) in front of the column name. For example, if we want everything but the env_group column, we can do:


~~~
sample_data %>%
  select(-env_group)
~~~
{: .language-r}



~~~
# A tibble: 71 × 8
   sample_id depth cells_per_ml temperature total_nitrogen total_phosphorus diss_org_carbon chlorophyll
   <chr>     <dbl>        <dbl>       <dbl>          <dbl>            <dbl>           <dbl>       <dbl>
 1 May_12_B   103.     2058864.        4.07            465             3.78            2.48        0.05
 2 May_12_E     5      4696827.        7.01            465             4.39            2.38        2.53
 3 May_12_M    15      4808339.        6.14            474             5.37            2.60        3.2 
 4 May_17_E     5      3738681.        5.99            492             4.67            2.44        0.55
 5 May_29_B    27      2153086.        4.67            525             4.44            2.40        0.48
 6 May_29_E     5      3124920.        5.97            521             3.71            2.28        0.79
 7 May_29_M    19      2566156.        5.69            539             4.23            2.33        0.44
 8 May_33_B   135      2293177.        3.87            505             4.18            2.34        0.22
 9 May_33_E     5      5480859.        7.93            473             6.64            2.51        3.44
10 May_33_M    20      3114433.        4.53            515             4.14            2.23        1.27
# ℹ 61 more rows
…
> 
> > ## Solution: 
> > There are multiple ways to do this exercise. Here are two different possibilities. 
> > 
> > 
> > ~~~
> > sample_data %>%
> >   select(sample_id, env_group, depth, temperature, cells_per_ml)
> > ~~~
> > {: .language-r}
> > 
> > 
> > 
> > ~~~
> > # A tibble: 71 × 5
> >    sample_id env_group   depth temperature cells_per_ml
> >    <chr>     <chr>       <dbl>       <dbl>        <dbl>
> >  1 May_12_B  Deep         103.        4.07     2058864.
> >  2 May_12_E  Shallow_May    5         7.01     4696827.
> >  3 May_12_M  Shallow_May   15         6.14     4808339.
> >  4 May_17_E  Shallow_May    5         5.99     3738681.
> >  5 May_29_B  Deep          27         4.67     2153086.
> >  6 May_29_E  Shallow_May    5         5.97     3124920.
> >  7 May_29_M  Shallow_May   19         5.69     2566156.
> >  8 May_33_B  Deep         135         3.87     2293177.
> >  9 May_33_E  Shallow_May    5         7.93     5480859.
> > 10 May_33_M  Shallow_May   20         4.53     3114433.
> > # ℹ 61 more rows
> > ~~~
> > {: .output}
> > 
> > ~~~
> > sample_data %>%
> >   select(-total_nitrogen, -total_phosphorus, -diss_org_carbon, -chlorophyll)
> > ~~~
> > {: .language-r}
> > 
> > 
> > 
> > ~~~
> > # A tibble: 71 × 5
> >    sample_id env_group   depth cells_per_ml temperature
> >    <chr>     <chr>       <dbl>        <dbl>       <dbl>
> >  1 May_12_B  Deep         103.     2058864.        4.07
> >  2 May_12_E  Shallow_May    5      4696827.        7.01
> >  3 May_12_M  Shallow_May   15      4808339.        6.14
> >  4 May_17_E  Shallow_May    5      3738681.        5.99
> >  5 May_29_B  Deep          27      2153086.        4.67
> >  6 May_29_E  Shallow_May    5      3124920.        5.97
> >  7 May_29_M  Shallow_May   19      2566156.        5.69
> >  8 May_33_B  Deep         135      2293177.        3.87
> >  9 May_33_E  Shallow_May    5      5480859.        7.93
> > 10 May_33_M  Shallow_May   20      3114433.        4.53
> > # ℹ 61 more rows
…
> ## Bonus: Using helper functions with `select()`
>
> The `select()` function has a bunch of helper functions that are handy if you are working with a dataset that has a lot of columns. You can see these helper functions on the `?select` help page. For example, let's say we wanted to select the sample_id column and all the columns that start with "total". You can do that with:
> 
> 
> ~~~
> sample_data %>%
>   select(sample_id, starts_with("total"))
> ~~~
> {: .language-r}
> 
> 
> 
> ~~~
> # A tibble: 71 × 3
>    sample_id total_nitrogen total_phosphorus
>    <chr>              <dbl>            <dbl>
>  1 May_12_B             465             3.78
>  2 May_12_E             465             4.39
>  3 May_12_M             474             5.37
>  4 May_17_E             492             4.67
>  5 May_29_B             525             4.44
>  6 May_29_E             521             3.71
>  7 May_29_M             539             4.23
>  8 May_33_B             505             4.18
>  9 May_33_E             473             6.64
> 10 May_33_M             515             4.14
> # ℹ 61 more rows
…
> > > ## Solution
> > >
> > > The helper function `ends_with()` can help us here.
> > >
> > > 
> > > ~~~
> > > sample_data %>%
> > > select(ends_with("n"))
> > > ~~~
> > > {: .language-r}
> > > 
> > > 
> > > 
> > > ~~~
> > > # A tibble: 71 × 2
> > >    total_nitrogen diss_org_carbon
> > >             <dbl>           <dbl>
> > >  1            465            2.48
> > >  2            465            2.38
> > >  3            474            2.60
> > >  4            492            2.44
> > >  5            525            2.40
> > >  6            521            2.28
> > >  7            539            2.33
> > >  8            505            2.34
> > >  9            473            2.51
> > > 10            515            2.23
> > > # ℹ 61 more rows
…
~~~
Rows: 73 Columns: 1
── Column specification ───────────────────────────────────────────────────────────────────────────────────────────────────────────────────────────────────────────────────────────────────────────
Delimiter: ","
chr (1): Relative Abundances of Taxa in Lake Ontario

ℹ Use `spec()` to retrieve the full column specification for this data.
ℹ Specify the column types or set `show_col_types = FALSE` to quiet this message.
~~~
{: .output}



~~~
# A tibble: 73 × 1
   `Relative Abundances of Taxa in Lake Ontario`                                                                                                                                                                       
   <chr>                                                                                                                                                                                                               
 1 Schmidt Lab, 2023                                                                                                                                                                                                   
 2 sample_id,Proteobacteria,Actinobacteriota,Bacteroidota,Chloroflexi,Verrucomicrobiota,Cyanobacteria,Planctomycetota,sequencing_reads,perc_reads_retained,Extraction_Date,Lot_Number,                                 
 3 Sep_43_B,0.4750424903837557,0.14116870918686822,0.072457285982646,0.005154754450308614,0.11356114142588777,0.14148179622506485,0.036429913230163695,78341,67.55654362396726,20231007.5,172033163, MiSeq Sequencer   
 4 Sep_29_E,0.4532027397871533,0.18427745922670175,0.08144619709511161,0.006882934338814395,0.12767452756520375,0.1136520827290779,0.025836103612146104,73370,67.04807015935938,20231011,NA, MiSeq Sequencer           
 5 Sep_62_B,0.4445189001548922,0.22247366281816092,0.11902538695609188,0.008414715866023662,0.07473278333754435,0.08943107293119928,0.025474838241917597,70483,71.15438503541827,20231008.5,NA, MiSeq Sequencer        
 6 May_8_E,0.44319281443068753,0.1948738307322036,0.2632806490831948,0.05237823487085329,0.03761506587598938,6.947373644641838e-4,0.0020097759471999605,58185,68.44234708674301,20230614.5,172033163, MiSeq Sequencer  
 7 Sep_62_E,0.44124389783423684,0.20572502270050613,0.09990919797538457,0.005726820760399528,0.10034073234979457,0.10234556913090771,0.03154696082926523,89830,69.57811054899217,20231013.5,NA, MiSeq Sequencer        
 8 May_38_E,0.4396651527295396,0.17521595867842193,0.3104016386143022,0.016430670585092174,0.03927331017900079,8.014961261020571e-4,0.0056995280078368515,61580,57.03312763884378,20230615,172033163, MiSeq Sequencer  
 9 Sep_12_E,0.43588136704802166,0.21974786854186404,0.07703854842235662,0.00970633243459885,0.10388399038111201,0.11340085987029075,0.02840486774029002,58568.5,68.09693556299425,20231007.5,172033163, MiSeq Sequencer
10 May_17_E,0.4351187991214858,0.19107690632203736,0.21576243805928202,0.08498357323071895,0.057520919173034694,0.0012887299656943712,0.002105530648176719,55062,66.34078050124333,20230615,172033163, MiSeq Sequencer 
# ℹ 63 more rows
…
~~~
# A tibble: 71 × 13
   sample_id Proteobacteria Actinobacteriota Bacteroidota Chloroflexi Verrucomicrobiota Cyanobacteria Planctomycetota sequencing_reads perc_reads_retained Extraction_Date Lot_Number ...13          
   <chr>              <dbl>            <dbl>        <dbl>       <dbl>             <dbl>         <dbl>           <dbl>            <dbl>               <dbl>           <dbl>      <dbl> <chr>          
 1 Sep_43_B           0.475            0.141       0.0725     0.00515            0.114       0.141            0.0364            78341                 67.6       20231008.  172033163 MiSeq Sequencer
 2 Sep_29_E           0.453            0.184       0.0814     0.00688            0.128       0.114            0.0258            73370                 67.0       20231011          NA MiSeq Sequencer
 3 Sep_62_B           0.445            0.222       0.119      0.00841            0.0747      0.0894           0.0255            70483                 71.2       20231008.         NA MiSeq Sequencer
 4 May_8_E            0.443            0.195       0.263      0.0524             0.0376      0.000695         0.00201           58185                 68.4       20230614.  172033163 MiSeq Sequencer
 5 Sep_62_E           0.441            0.206       0.0999     0.00573            0.100       0.102            0.0315            89830                 69.6       20231014.         NA MiSeq Sequencer
 6 May_38_E           0.440            0.175       0.310      0.0164             0.0393      0.000801         0.00570           61580                 57.0       20230615   172033163 MiSeq Sequencer
 7 Sep_12_E           0.436            0.220       0.0770     0.00971            0.104       0.113            0.0284            58568.                68.1       20231008.  172033163 MiSeq Sequencer
 8 May_17_E           0.435            0.191       0.216      0.0850             0.0575      0.00129          0.00211           55062                 66.3       20230615   172033163 MiSeq Sequencer
 9 May_66_E           0.431            0.139       0.315      0.0205             0.0693      0.00142          0.00703           50591                 64.7       20230614   172033163 MiSeq Sequencer
10 Sep_8_B            0.429            0.163       0.118      0.00483            0.165       0.0886           0.0183            76739                 66.2       20231016.         NA MiSeq Sequencer
# ℹ 61 more rows
…
> New names:
> Rows: 71 Columns: 13
> ── Column specification
> ─────────────────────────────────────────────────────────────────────────────────────────────────────────────────────────────────────────────────────────────────────────── Delimiter: "," chr
> (2): sample_id, ...13 dbl (11): Proteobacteria, Actinobacteriota, Bacteroidota, Chloroflexi, Verrucomicrobiota, Cyanobacteria, Planctomycetota, sequencing_reads, perc_reads_retained,
> Extraction_Date, Lot_Number
> ℹ Use `spec()` to retrieve the full column specification for this data. ℹ Specify the column types or set `show_col_types = FALSE` to quiet this message.
> • `` -> `...13`
> ~~~
> {: .output}
> 
> 
> 
> ~~~
> # A tibble: 71 × 13
>    sample_id proteobacteria actinobacteriota bacteroidota chloroflexi verrucomicrobiota cyanobacteria planctomycetota sequencing_reads perc_reads_retained extraction_date lot_number ...13          
>    <chr>              <dbl>            <dbl>        <dbl>       <dbl>             <dbl>         <dbl>           <dbl>            <dbl>               <dbl>           <dbl>      <dbl> <chr>          
>  1 Sep_43_B           0.475            0.141       0.0725     0.00515            0.114       0.141            0.0364            78341                 67.6       20231008.  172033163 MiSeq Sequencer
>  2 Sep_29_E           0.453            0.184       0.0814     0.00688            0.128       0.114            0.0258            73370                 67.0       20231011          NA MiSeq Sequencer
>  3 Sep_62_B           0.445            0.222       0.119      0.00841            0.0747      0.0894           0.0255            70483                 71.2       20231008.         NA MiSeq Sequencer
>  4 May_8_E            0.443            0.195       0.263      0.0524             0.0376      0.000695         0.00201           58185                 68.4       20230614.  172033163 MiSeq Sequencer
>  5 Sep_62_E           0.441            0.206       0.0999     0.00573            0.100       0.102            0.0315            89830                 69.6       20231014.         NA MiSeq Sequencer
>  6 May_38_E           0.440            0.175       0.310      0.0164             0.0393      0.000801         0.00570           61580                 57.0       20230615   172033163 MiSeq Sequencer
>  7 Sep_12_E           0.436            0.220       0.0770     0.00971            0.104       0.113            0.0284            58568.                68.1       20231008.  172033163 MiSeq Sequencer
>  8 May_17_E           0.435            0.191       0.216      0.0850             0.0575      0.00129          0.00211           55062                 66.3       20230615   172033163 MiSeq Sequencer
>  9 May_66_E           0.431            0.139       0.315      0.0205             0.0693      0.00142          0.00703           50591                 64.7       20230614   172033163 MiSeq Sequencer
> 10 Sep_8_B            0.429            0.163       0.118      0.00483            0.165       0.0886           0.0183            76739                 66.2       20231016.         NA MiSeq Sequencer
> # ℹ 61 more rows
…
