…
[3] It seems like there is an outlier in Shallow_May with very high nitrogen levels. What is this sample? Use a combination of `filter` and `arrange` to find out.

> ## Solution
> 
> ~~~
> sample_and_taxon %>% 
>  filter(env_group == "Shallow_May") %>% 
>  arrange(desc(total_nitrogen))
> ~~~
> {: .language-r}
> 
> 
> 
> ~~~
> # A tibble: 25 × 15
>    sample_id env_group   depth cells_per_ml temperature total_nitrogen
>    <chr>     <chr>       <dbl>        <dbl>       <dbl>          <dbl>
>  1 May_8_E   Shallow_May     5     4578830.        8.43            640
>  2 May_29_M  Shallow_May    19     2566156.        5.69            539
>  3 May_29_E  Shallow_May     5     3124920.        5.97            521
>  4 May_33_M  Shallow_May    20     3114433.        4.53            515
>  5 May_43_E  Shallow_May     5     2787020.        5.88            499
>  6 May_17_E  Shallow_May     5     3738681.        5.99            492
>  7 May_66_E  Shallow_May     5     5262156.       12.3             489
>  8 May_35_B  Shallow_May    27     3066162.        6.57            479
>  9 May_48_B  Shallow_May    35     2300782.        4.79            477
> 10 May_717_E Shallow_May     5     4197941.       10.2             477
> # ℹ 15 more rows
> # ℹ 9 more variables: total_phosphorus <dbl>, diss_org_carbon <dbl>,
> #   chlorophyll <dbl>, Proteobacteria <dbl>, Actinobacteriota <dbl>,
> #   Bacteroidota <dbl>, Chloroflexi <dbl>, Verrucomicrobiota <dbl>,
> #   Cyanobacteria <dbl>
…
[7] Now, we want to analyze multiple Phyla at once. Because our taxa abundances are in wide format, we can't use multiple Phyla in a single ggplot. As such, we will need to convert our data to long format. Using `pivot_longer`, convert the columns containing our Phyla abundances from wide to long.

> ## Solution
> 
> ~~~
> sample_and_taxon %>%
>   pivot_longer(cols = Proteobacteria:Cyanobacteria, names_to = "Phylum", values_to = "Abundance")
> ~~~
> {: .language-r}
> 
> 
> 
> ~~~
> # A tibble: 426 × 11
>    sample_id env_group   depth cells_per_ml temperature total_nitrogen
>    <chr>     <chr>       <dbl>        <dbl>       <dbl>          <dbl>
>  1 May_12_B  Deep         103.     2058864.        4.07            465
>  2 May_12_B  Deep         103.     2058864.        4.07            465
>  3 May_12_B  Deep         103.     2058864.        4.07            465
>  4 May_12_B  Deep         103.     2058864.        4.07            465
>  5 May_12_B  Deep         103.     2058864.        4.07            465
>  6 May_12_B  Deep         103.     2058864.        4.07            465
>  7 May_12_E  Shallow_May    5      4696827.        7.01            465
>  8 May_12_E  Shallow_May    5      4696827.        7.01            465
>  9 May_12_E  Shallow_May    5      4696827.        7.01            465
> 10 May_12_E  Shallow_May    5      4696827.        7.01            465
> # ℹ 416 more rows
> # ℹ 5 more variables: total_phosphorus <dbl>, diss_org_carbon <dbl>,
> #   chlorophyll <dbl>, Phylum <chr>, Abundance <dbl>
…
